Estimate the specific module using indicator saturation — estimate_module • osem
…
#> 
#>                    Chi-sq df p-value
#> Ljung-Box AR(1)   0.22312  1  0.6367
#> Ljung-Box ARCH(1) 0.29054  1  0.5899
#>                            
#> SE of regression    0.00876
#> R-squared           0.18155
#> Log-lik.(n=366)  1219.55995
#> 
#> $superex_test
#> [1] NA
#> 
#> $args
#> $args$clean_data
#> # A tibble: 366 × 46
#>    index time       trend  yvar  xvar ln.yvar ln.xvar D.yvar  D.xvar D.ln.yvar
#>    <int> <date>     <dbl> <dbl> <dbl>   <dbl>   <dbl>  <dbl>   <dbl>     <dbl>
#>  1     1 2000-01-01     1  99.3 101.     4.60    4.61 NA     NA       NA      
#>  2     2 2000-01-02     2  99.5  99.8    4.60    4.60  0.122 -0.720    0.00123
#>  3     3 2000-01-03     3  99.2  99.4    4.60    4.60 -0.227 -0.435   -0.00229
#>  4     4 2000-01-04     4 102.  101.     4.62    4.61  2.41   1.45     0.0240 
#>  5     5 2000-01-05     5 100.   99.6    4.61    4.60 -1.31  -1.25    -0.0130 
#>  6     6 2000-01-06     6 101.  101.     4.61    4.62  0.562  1.60     0.00558
#>  7     7 2000-01-07     7 100.  101.     4.60    4.61 -0.948 -0.404   -0.00944
#>  8     8 2000-01-08     8 101.   99.7    4.62    4.60  1.21  -1.06     0.0121 
#>  9     9 2000-01-09     9  99.7  99.7    4.60    4.60 -1.48  -0.0145  -0.0147 
#> 10    10 2000-01-10    10  99.2  99.9    4.60    4.60 -0.490  0.192   -0.00492
#> # ℹ 356 more rows
#> # ℹ 36 more variables: D.ln.xvar <dbl>, L1.yvar <dbl>, L1.xvar <dbl>,
#> #   L1.ln.yvar <dbl>, L1.ln.xvar <dbl>, L1.D.yvar <dbl>, L1.D.xvar <dbl>,
#> #   L1.D.ln.yvar <dbl>, L1.D.ln.xvar <dbl>, L2.yvar <dbl>, L2.xvar <dbl>,
#> #   L2.ln.yvar <dbl>, L2.ln.xvar <dbl>, L2.D.yvar <dbl>, L2.D.xvar <dbl>,
#> #   L2.D.ln.yvar <dbl>, L2.D.ln.xvar <dbl>, L3.yvar <dbl>, L3.xvar <dbl>,
#> #   L3.ln.yvar <dbl>, L3.ln.xvar <dbl>, L3.D.yvar <dbl>, L3.D.xvar <dbl>, …
…
