Adding a new variable to the Dictionary • osem
…
using the unit of an index that is set to the 2015 value
and

is not seasonally adjusted.

Checking the new variable

Given this information, let’s try to download it first - using the
get_eurostat function from the {eurostat}
package:

dat_raw <- get_eurostat(id = "sts_inpr_q")

dat_raw
#> # A tibble: 4,796,221 × 8
#>    freq  indic_bt nace_r2 s_adj unit  geo   TIME_PERIOD values
#>    <chr> <chr>    <chr>   <chr> <chr> <chr> <date>       <dbl>
#>  1 Q     PRD      B       CA    I10   AT    1996-01-01    64.2
#>  2 Q     PRD      B       CA    I10   AT    1996-04-01    85.6
#>  3 Q     PRD      B       CA    I10   AT    1996-07-01    90.1
#>  4 Q     PRD      B       CA    I10   AT    1996-10-01    87.1
#>  5 Q     PRD      B       CA    I10   AT    1997-01-01    66.6
#>  6 Q     PRD      B       CA    I10   AT    1997-04-01    82.1
#>  7 Q     PRD      B       CA    I10   AT    1997-07-01    85.9
#>  8 Q     PRD      B       CA    I10   AT    1997-10-01    82.2
#>  9 Q     PRD      B       CA    I10   AT    1998-01-01    69.2
#> 10 Q     PRD      B       CA    I10   AT    1998-04-01    91.1
#> # ℹ 4,796,211 more rows

Now let’s filter this raw dataset down to the data series that we
need:

dat_raw %>% 
  filter(indic_bt == "PRD", # for industrial production variable
         nace_r2 == "B-D", # to select all NACE rev 2 sectors in B, C, and D
         s_adj == "NSA", # to get the raw, non-adjusted data
         unit == "I15", # to get the 2015 Index
         geo == "AT" # to get only the Austrian data
         ) -> dat_AT
dat_AT
#> # A tibble: 112 × 8
#>    freq  indic_bt nace_r2 s_adj unit  geo   TIME_PERIOD values
#>    <chr> <chr>    <chr>   <chr> <chr> <chr> <date>       <dbl>
#>  1 Q     PRD      B-D     NSA   I15   AT    1996-01-01    50.9
#>  2 Q     PRD      B-D     NSA   I15   AT    1996-04-01    51.9
#>  3 Q     PRD      B-D     NSA   I15   AT    1996-07-01    51.9
#>  4 Q     PRD      B-D     NSA   I15   AT    1996-10-01    56  
#>  5 Q     PRD      B-D     NSA   I15   AT    1997-01-01    51.8
#>  6 Q     PRD      B-D     NSA   I15   AT    1997-04-01    55.7
#>  7 Q     PRD      B-D     NSA   I15   AT    1997-07-01    55.6
#>  8 Q     PRD      B-D     NSA   I15   AT    1997-10-01    60.9
#>  9 Q     PRD      B-D     NSA   I15   AT    1998-01-01    57.1
#> 10 Q     PRD      B-D     NSA   I15   AT    1998-04-01    60.4
#> # ℹ 102 more rows
…
